{
  "project_info": {
    "project_number": "586995118448",
    "firebase_url": "https://wisma-213c2.firebaseio.com",
    "project_id": "wisma-213c2",
    "storage_bucket": "wisma-213c2.appspot.com"
  },
  "client": [
    {
      "client_info": {
        "mobilesdk_app_id": "1:586995118448:android:c131f3fd8f8d9f594c1fb5",
        "android_client_info": {
          "package_name": "com.wismaapps"
        }
      },
      "oauth_client": [
        {
          "client_id": "586995118448-ompqa1b6q3ptm54qnt45rphd54fe8o3q.apps.googleusercontent.com",
          "client_type": 1,
          "android_info": {
            "package_name": "com.wismaapps",
            "certificate_hash": "635d1e1b56057335e0cd9e91ff582243c91f180e"
          }
        },
        {
          "client_id": "586995118448-ago49ngkjdivajsgjlrn5lkfmt8v3ufm.apps.googleusercontent.com",
          "client_type": 3
        }
      ],
      "api_key": [
        {
          "current_key": "AIzaSyAavMMWvS9nxQ_vSsGem6LqwZIBYWExiVE"
        }
      ],
      "services": {
        "appinvite_service": {
          "other_platform_oauth_client": [
            {
              "client_id": "586995118448-ago49ngkjdivajsgjlrn5lkfmt8v3ufm.apps.googleusercontent.com",
              "client_type": 3
            }
          ]
        }
      }
    }
  ],
  "configuration_version": "1"
}